^D:\USERS\JPEEE\DESKTOP\TDE_INT_COMP_\LBP\HISTOGRAM.CPP|D:\USERS\JPEEE\DESKTOP\TDE_INT_COMP_\LBP\OLBP.CPP|D:\USERS\JPEEE\DESKTOP\TDE_INT_COMP_\LBP\PLB.CPP
D:\USERS\JPEEE\DESKTOP\TDE_INT_COMP_\LBP\X64\DEBUG\VC141.PDB
D:\USERS\JPEEE\DESKTOP\TDE_INT_COMP_\LBP\X64\DEBUG\VC141.IDB
D:\USERS\JPEEE\DESKTOP\TDE_INT_COMP_\LBP\X64\DEBUG\PLB.OBJ
D:\USERS\JPEEE\DESKTOP\TDE_INT_COMP_\LBP\X64\DEBUG\OLBP.OBJ
D:\USERS\JPEEE\DESKTOP\TDE_INT_COMP_\LBP\X64\DEBUG\HISTOGRAM.OBJ
^D:\USERS\JPEEE\DESKTOP\TDE_INT_COMP_\LBP\HISTOGRAM.CPP
D:\USERS\JPEEE\DESKTOP\TDE_INT_COMP_\LBP\X64\DEBUG\VC141.PDB
^D:\USERS\JPEEE\DESKTOP\TDE_INT_COMP_\LBP\OLBP.CPP|D:\USERS\JPEEE\DESKTOP\TDE_INT_COMP_\LBP\PLB.CPP
D:\USERS\JPEEE\DESKTOP\TDE_INT_COMP_\LBP\X64\DEBUG\VC141.PDB
D:\USERS\JPEEE\DESKTOP\TDE_INT_COMP_\LBP\X64\DEBUG\VC141.IDB
D:\USERS\JPEEE\DESKTOP\TDE_INT_COMP_\LBP\X64\DEBUG\PLB.OBJ
D:\USERS\JPEEE\DESKTOP\TDE_INT_COMP_\LBP\X64\DEBUG\OLBP.OBJ
^D:\USERS\JPEEE\DESKTOP\TDE_INT_COMP_\LBP\OLBP.CPP
D:\USERS\JPEEE\DESKTOP\TDE_INT_COMP_\LBP\X64\DEBUG\VC141.PDB
D:\USERS\JPEEE\DESKTOP\TDE_INT_COMP_\LBP\X64\DEBUG\VC141.IDB
D:\USERS\JPEEE\DESKTOP\TDE_INT_COMP_\LBP\X64\DEBUG\OLBP.OBJ
^D:\USERS\JPEEE\DESKTOP\TDE_INT_COMP_\LBP\PLB.CPP
D:\USERS\JPEEE\DESKTOP\TDE_INT_COMP_\LBP\X64\DEBUG\VC141.PDB
D:\USERS\JPEEE\DESKTOP\TDE_INT_COMP_\LBP\X64\DEBUG\VC141.IDB
D:\USERS\JPEEE\DESKTOP\TDE_INT_COMP_\LBP\X64\DEBUG\PLB.OBJ
